{
  "common": {
    "social": {
      "vk": "https://vk.com/",
      "instagram": "https://instagram.com/",
      "facebook": "https://ru-ru.facebook.com/",
      "youtube": "https://www.youtube.com/"
    },
    "contacts": {
      "phone": "+7 918 530 56 78",
      "email": "armi@yandex.ru",
      "address": "Ростов-на-Дону, пер. Журавлева, 150"
    },
    "massMedia": {
      "phone": "+7 918 530 56 78",
      "email": "armi@yandex.ru",
      "address": "Ростов-на-Дону, пер. Журавлева, 150"
    },
    "partners": [
      { "id": 7870, "image": "https://picsum.photos/id/10/50", "url": "//twitter.com" },
      { "id": 7871, "image": "https://picsum.photos/id/20/50", "url": "//twitter.com" },
      { "id": 7872, "image": "https://picsum.photos/id/30/50", "url": "//twitter.com" },
      { "id": 7873, "image": "https://picsum.photos/id/40/50", "url": "//twitter.com" },
      { "id": 7874, "image": "https://picsum.photos/id/50/50", "url": "//twitter.com" }
    ],
    "menu": [
      { "id": 0, "title": "О нас", "path": "/about" },
      { "id": 1, "title": "Новости", "path": "/news" },
      { "id": 2, "title": "Флагманы", "path": "/flagship" },
      { "id": 3, "title": "Возможности", "path": "/opportunity" },
      { "id": 4, "title": "Направления", "path": "/direction" },
      { "id": 5, "title": "Медиа", "path": "/#media" },
      { "id": 6, "title": "Территории", "path": "/territory" },
      { "id": 7, "title": "Контакты", "path": "/#footer" }
    ]
  },
  "main-news": {
    "main": [
      {
        "id": 7,
        "title": "В этом году форум «Ростов» празднует важную дату – 10 лет с момента проведения первого форума1",
        "image": "https://picsum.photos/id/60/900/300",
        "date": "2019-09-12T10:27:02+0000"
      },
      {
        "id": 8,
        "title": "В этом году форум «Ростов» празднует важную дату – 10 лет с момента проведения первого форума.2",
        "image": "https://picsum.photos/id/70/900/300",
        "date": "2019-09-25T10:27:02+0000"
      },
      {
        "id": 9,
        "title": "В этом году форум «Ростов» празднует важную дату – 10 лет с момента проведения первого форума.3",
        "image": "https://picsum.photos/id/80/900/300",
        "date": "2019-10-30T10:27:02+0000"
      }
    ],
    "important": [
      {
        "id": 10,
        "title": "В этом году форум «Ростов» празднует важную дату – 10 лет с момента проведения первого форума4",
        "image": "https://picsum.photos/id/90/300/300",
        "date": "2019-09-12T10:27:02+0000"
      },
      {
        "id": 11,
        "title": "В этом году форум «Ростов» празднует важную дату – 10 лет с момента проведения первого форума5",
        "image": "https://picsum.photos/id/100/300/300",
        "date": "2019-09-25T10:27:02+0000"
      },
      {
        "id": 12,
        "title": "В этом году форум «Ростов» празднует важную дату – 10 лет с момента проведения первого форума6",
        "image": "https://picsum.photos/id/110/300/300",
        "date": "2019-10-30T10:27:02+0000"
      },
      {
        "id": 13,
        "title": "В этом году форум «Ростов» празднует важную дату – 10 лет с момента проведения первого форума7",
        "image": "https://picsum.photos/id/120/300/300",
        "date": "2019-10-30T10:27:02+0000"
      },
      {
        "id": 14,
        "title": "В этом году форум «Ростов» празднует важную дату – 10 лет с момента проведения первого форума8",
        "image": "https://picsum.photos/id/130/300/300",
        "date": "2019-10-30T10:27:02+0000"
      }
    ]
  },
  "news-all": [
    {
      "id": 7,
      "title": "В этом году форум «Ростов» празднует важную дату – 10 лет с момента проведения первого форума1",
      "image": "https://picsum.photos/id/60/900/300",
      "date": "2019-09-12T10:27:02+0000",
      "preview": "Давно выяснено, что при оценке дизайна и композиции читаемый текст мешает сосредоточиться. Lorem Ipsum используют потому, что тот обеспечивает более или менее стандартное заполнение шаблона, а также реальное распределение букв и пробелов в абзацах, которое не получается при простой дубликации \"Здесь ваш текст.. Здесь ваш текст.. Здесь ваш текст..\" Многие программы электронной вёрстки и редакторы HTML используют Lorem Ipsum в качестве текста по умолчанию, так что поиск по ключевым словам \"lorem ipsum\" сразу показывает, как много веб-страниц всё ещё дожидаются своего настоящего рождения. За прошедшие годы текст Lorem Ipsum получил много версий. Некоторые версии появились по ошибке, некоторые - намеренно (например, юмористические варианты)."
    },
    {
      "id": 8,
      "title": "В этом году форум «Ростов» празднует важную дату – 10 лет с момента проведения первого форума.2",
      "image": "https://picsum.photos/id/70/900/300",
      "date": "2019-09-25T10:27:02+0000",
      "preview": "Давно выяснено, что при оценке дизайна и композиции читаемый текст мешает сосредоточиться. Lorem Ipsum используют потому, что тот обеспечивает более или менее стандартное заполнение шаблона, а также реальное распределение букв и пробелов в абзацах, которое не получается при простой дубликации \"Здесь ваш текст.. Здесь ваш текст.. Здесь ваш текст..\" Многие программы электронной вёрстки и редакторы HTML используют Lorem Ipsum в качестве текста по умолчанию, так что поиск по ключевым словам \"lorem ipsum\" сразу показывает, как много веб-страниц всё ещё дожидаются своего настоящего рождения. За прошедшие годы текст Lorem Ipsum получил много версий. Некоторые версии появились по ошибке, некоторые - намеренно (например, юмористические варианты)."
    },
    {
      "id": 9,
      "title": "В этом году форум «Ростов» празднует важную дату – 10 лет с момента проведения первого форума.3",
      "image": "https://picsum.photos/id/80/900/300",
      "date": "2019-10-30T10:27:02+0000",
      "preview": "Давно выяснено, что при оценке дизайна и композиции читаемый текст мешает сосредоточиться. Lorem Ipsum используют потому, что тот обеспечивает более или менее стандартное заполнение шаблона, а также реальное распределение букв и пробелов в абзацах, которое не получается при простой дубликации \"Здесь ваш текст.. Здесь ваш текст.. Здесь ваш текст..\" Многие программы электронной вёрстки и редакторы HTML используют Lorem Ipsum в качестве текста по умолчанию, так что поиск по ключевым словам \"lorem ipsum\" сразу показывает, как много веб-страниц всё ещё дожидаются своего настоящего рождения. За прошедшие годы текст Lorem Ipsum получил много версий. Некоторые версии появились по ошибке, некоторые - намеренно (например, юмористические варианты)."
    }
  ],
  "flagship": [
    {
      "id": 1,
      "title": "Акция признательности «Благодарю»1",
      "date": "20 января 1957",
      "image": "https://picsum.photos/id/140/320/300",
      "address": "Пролетарский проспект 76/2",
      "url": "http://google.com/"
    },
    {
      "id": 2,
      "title": "Акция признательности «Благодарю»2",
      "date": "20 января 1957",
      "image": "https://picsum.photos/id/141/320/300",
      "address": "Пролетарский проспект 76/5",
      "url": "http://google.com/"
    },
    {
      "id": 3,
      "title": "Акция признательности «Благодарю»3",
      "date": "20 января 1957",
      "image": "https://picsum.photos/id/142/320/300",
      "address": "Пролетарский проспект 76/5",
      "url": "http://google.com/"
    },
    {
      "id": 4,
      "title": "Акция признательности «Благодарю»4",
      "date": "20 января 1957",
      "image": "https://picsum.photos/id/143/320/300",
      "address": "Пролетарский проспект 76/5",
      "url": "http://google.com/"
    },
    {
      "id": 5,
      "title": "Акция признательности «Благодарю»5",
      "date": "20 января 1957",
      "image": "https://picsum.photos/id/144/320/300",
      "address": "Пролетарский проспект 76/5",
      "url": "http://google.com/"
    },
    {
      "id": 6,
      "title": "Акция признательности «Благодарю»6",
      "date": "20 января 1957",
      "image": "https://picsum.photos/id/145/320/300",
      "address": "Пролетарский проспект 76/5",
      "url": "http://google.com/"
    },
    {
      "id": 7,
      "title": "Акция признательности «Благодарю»7",
      "date": "20 января 1957",
      "image": "https://picsum.photos/id/146/320/300",
      "address": "Пролетарский проспект 76/5",
      "url": "http://google.com/"
    },
    {
      "id": 8,
      "title": "Акция признательности «Благодарю»8",
      "date": "20 января 1957",
      "image": "https://picsum.photos/id/147/320/300",
      "address": "Пролетарский проспект 76/5",
      "url": "http://google.com/"
    },
    {
      "id": 9,
      "title": "Акция признательности «Благодарю»9",
      "date": "20 января 1957",
      "image": "https://picsum.photos/id/139/320/300",
      "address": "Пролетарский проспект 76/5",
      "url": "http://google.com/"
    },
    {
      "id": 10,
      "title": "Акция признательности «Благодарю»10",
      "date": "20 января 1957",
      "image": "https://picsum.photos/id/47/320/300",
      "address": "Пролетарский проспект 76/5",
      "url": "http://google.com/"
    },
    {
      "id": 11,
      "title": "Акция признательности «Благодарю»11",
      "date": "20 января 1957",
      "image": "https://picsum.photos/id/33/320/300",
      "address": "Пролетарский проспект 76/5",
      "url": "http://google.com/"
    },
    {
      "id": 12,
      "title": "Акция признательности «Благодарю»12",
      "date": "20 января 1957",
      "image": "https://picsum.photos/id/45/320/300",
      "address": "Пролетарский проспект 76/5",
      "url": "http://google.com/"
    }
  ],
  "opportunity": [
    {
      "id": 0,
      "title": "Выставка ледовых скульптур: «Буран» возвращается в Парк Горького",
      "date": "11.04.19 - 15.04.2019",
      "time": "Ежедневно с 19:00",
      "image": "https://picsum.photos/id/84/390/280",
      "address": "Парк Горького"
    },
    {
      "id": 1,
      "title": "Выставка ледовых скульптур: «Буран» возвращается в Парк Горького",
      "date": "11.04.19 - 15.04.2019",
      "time": "Ежедневно с 19:00",
      "image": "https://picsum.photos/id/85/390/280",
      "address": "Парк Горького"
    },
    {
      "id": 2,
      "title": "Выставка ледовых скульптур: «Буран» возвращается в Парк Горького",
      "date": "11.04.19 - 15.04.2019",
      "time": "Ежедневно с 19:00",
      "image": "https://picsum.photos/id/75/390/280",
      "address": "Парк Горького"
    },
    {
      "id": 3,
      "title": "Выставка ледовых скульптур: «Буран» возвращается в Парк Горького",
      "date": "11.04.19 - 15.04.2019",
      "time": "Ежедневно с 19:00",
      "image": "https://picsum.photos/id/87/390/280",
      "address": "Парк Горького"
    },
    {
      "id": 4,
      "title": "Выставка ледовых скульптур: «Буран» возвращается в Парк Горького",
      "date": "11.04.19 - 15.04.2019",
      "time": "Ежедневно с 19:00",
      "image": "https://picsum.photos/id/88/390/280",
      "address": "Парк Горького"
    },
    {
      "id": 5,
      "title": "Выставка ледовых скульптур: «Буран» возвращается в Парк Горького",
      "date": "11.04.19 - 15.04.2019",
      "time": "Ежедневно с 19:00",
      "image": "https://picsum.photos/id/89/390/280",
      "address": "Парк Горького"
    },
    {
      "id": 6,
      "title": "Выставка ледовых скульптур: «Буран» возвращается в Парк Горького",
      "date": "11.04.19 - 15.04.2019",
      "time": "Ежедневно с 19:00",
      "image": "https://picsum.photos/id/90/390/280",
      "address": "Парк Горького"
    },
    {
      "id": 7,
      "title": "Выставка ледовых скульптур: «Буран» возвращается в Парк Горького",
      "date": "11.04.19 - 15.04.2019",
      "time": "Ежедневно с 19:00",
      "image": "https://picsum.photos/id/91/390/280",
      "address": "Парк Горького"
    },
    {
      "id": 8,
      "title": "Выставка ледовых скульптур: «Буран» возвращается в Парк Горького",
      "date": "11.04.19 - 15.04.2019",
      "time": "Ежедневно с 19:00",
      "image": "https://picsum.photos/id/92/390/280",
      "address": "Парк Горького"
    }
  ],
  "directions": [
    {
      "id": 0,
      "title": "Инфраструктура"
    },
    {
      "id": 1,
      "title": "Кадры"
    },
    {
      "id": 2,
      "title": "Медиа"
    },
    {
      "id": 3,
      "title": "Молодежное сотрудничество"
    },
    {
      "id": 4,
      "title": "Грантовые конкурсы"
    },
    {
      "id": 5,
      "title": "Общественные объединения"
    },
    {
      "id": 6,
      "title": "Патриотизм"
    },
    {
      "id": 7,
      "title": "Гражданственность"
    },
    {
      "id": 8,
      "title": "Самоуправление"
    },
    {
      "id": 9,
      "title": "ЗОЖ и Безопастность"
    },
    {
      "id": 10,
      "title": "Социальная интеграция"
    },
    {
      "id": 11,
      "title": "Добровольчество"
    },
    {
      "id": 12,
      "title": "Творчество"
    },
    {
      "id": 13,
      "title": "Социальные лифты"
    },
    {
      "id": 14,
      "title": "Молодые семьи"
    },
    {
      "id": 15,
      "title": "Отдых и оздоровление"
    }
  ],
  "media":  {
    "photos": [
      {
        "id": 0,
        "image": "https://picsum.photos/id/25/280/140",
        "title": "Фотоотчет “Всемирный фестиваль молодежи и студентов1”",
        "url": "https://google.ru/"
      },
      {
        "id": 1,
        "image": "https://picsum.photos/id/28/280/140",
        "title": "Фотоотчет “Всемирный фестиваль молодежи и студентов2”",
        "url": "https://translate.google.ru/"
      },
      {
        "id": 2,
        "image": "https://picsum.photos/id/31/280/140",
        "title": "Фотоотчет “Всемирный фестиваль молодежи и студентов3”",
        "url": "https://stackoverflow.com/"
      },
      {
        "id": 3,
        "image": "https://picsum.photos/id/17/280/140",
        "title": "Фотоотчет “Всемирный фестиваль молодежи и студентов4”",
        "url": "https://youtube.com/"
      }
    ],
    "videos": [
      {
        "id": 3,
        "title": "Молодежный день V Международного арктического форума «Арктика – территория диалога1»",
        "url": "https://www.youtube.com/watch?v=8VesYob7OJg"
      },
      {
        "id": 4,
        "title": "Молодежный день V Международного арктического форума «Арктика – территория диалога2»",
        "url": "https://www.youtube.com/watch?v=9rZeCNLfeuk"
      },
      {
        "id": 5,
        "title": "Молодежный день V Международного арктического форума «Арктика – территория диалога3»",
        "url": "https://www.youtube.com/watch?v=fvuCENgiCBQ"
      }
    ]
  },
  "territories": {
    "cities": [
      {"id": 0, "territory": "Ростов-на-Дону"},
      {"id": 1, "territory": "Азов"},
      {"id": 2, "territory": "Батайск"},
      {"id": 3, "territory": "Волгодонск"},
      {"id": 4, "territory": "Гуково"},
      {"id": 5, "territory": "Донецк"},
      {"id": 6, "territory": "Зверево"},
      {"id": 7, "territory": "Каменск-Шахтинский"},
      {"id": 8, "territory": "Новочеркасск"},
      {"id": 9, "territory": "Таганрог"},
      {"id": 10, "territory": "Шахты"},
      {"id": 11, "territory": "Азовский район"}
    ],
    "region": [
      {"id": 12, "territory": "Аксайский район"},
      {"id": 13, "territory": "Багаевский район"},
      {"id": 14, "territory": "Белокалитвинский район "},
      {"id": 15, "territory": "Боковский район "},
      {"id": 16, "territory": "Верхнедонской район"},
      {"id": 17, "territory": "Веселовский район "},
      {"id": 18, "territory": "Волгодонской район "},
      {"id": 19, "territory": "Дубовский район "},
      {"id": 20, "territory": "Егорлыкский район "},
      {"id": 21, "territory": "Заветинский район "},
      {"id": 22, "territory": "Зерноградский район "},
      {"id": 23, "territory": "Зимовниковский район "},
      {"id": 24, "territory": "Кагальницкий район "},
      {"id": 25, "territory": "Каменский район "},
      {"id": 26, "territory": "Константиновский район"},
      {"id": 27, "territory": "Красносулинский район"},
      {"id": 28, "territory": "Куйбышевский район"},
      {"id": 29, "territory": "Мартыновский район"}
    ]
  }
}












